{
    "host": "localhost",
    "port": "4000",
    "jwt_expiretime": "36000",
    "channelName": "mychannel",
    "CC_SRC_PATH": "../artifacts",
    "eventWaitTime": "30000",
    "appSecret":  "98888b680c042c04b2342d592998bd621dc7059fd7b86b1802b5e0f20982f978",
    "admins": [
        {
            "username": "admin",
            "secret": "adminpw"
        }
    ]
}